2 2 0 0 0 0 0 0 0 0
2 2 8245 8247 8259 8261 0 0 0 0 
2 2 12341 12343 12355 12357 0 0 0 0 
2 2 16437 16439 16451 16453 0 0 0 0 

3 3 0 0 0 0 0 0 0 0 0 0 0 0 0 0 0 0 0 0 
3 3 8245 8246 8247 8250 8251 8252 8259 8260 8261 0 0 0 0 0 0 0 0 0 
3 3 12341 12342 12343 12346 12347 12348 12355 12356 12357 0 0 0 0 0 0 0 0 0 
3 3 16437 16438 16439 16442 16443 16444 16451 16452 16453 0 0 0 0 0 0 0 0 0 

4 4 0 0 0 0 0 0 0 0 0 0 0 0 0 0 0 0 0 0 0 0 0 0 0 0 0 0 0 0 0 0 0 0 
4 4 8245 8246 8246 8247 8250 8251 8251 8252 8250 8251 8251 8252 8259 8260 8260 8261 0 0 0 0 0 0 0 0 0 0 0 0 0 0 0 0 
4 4 12341 12342 12342 12343 12346 12347 12347 12348 12346 12347 12347 12348 12355 12356 12356 12357 0 0 0 0 0 0 0 0 0 0 0 0 0 0 0 0 
4 4 16437 16438 16438 16439 16442 16443 16443 16444 16442 16443 16443 16444 16451 16452 16452 16453 0 0 0 0 0 0 0 0 0 0 0 0 0 0 0 0 

5 5 0 0 0 0 0 0 0 0 0 0 0 0 0 0 0 0 0 0 0 0 0 0 0 0 0 0 0 0 0 0 0 0 0 0 0 0 0 0 0 0 0 0 0 0 0 0 0 0 0 0 
5 5 8245 8246 8246 8246 8247 8250 8251 8251 8251 8252 8250 8251 8251 8251 8252 8250 8251 8251 8251 8252 8259 8260 8260 8260 8261 0 0 0 0 0 0 0 0 0 0 0 0 0 0 0 0 0 0 0 0 0 0 0 0 0 
5 5 12341 12342 12342 12342 12343 12346 12347 12347 12347 12348 12346 12347 12347 12347 12348 12346 12347 12347 12347 12348 12355 12356 12356 12356 12357 0 0 0 0 0 0 0 0 0 0 0 0 0 0 0 0 0 0 0 0 0 0 0 0 0 
5 5 16437 16438 16438 16438 16439 16442 16443 16443 16443 16444 16442 16443 16443 16443 16444 16442 16443 16443 16443 16444 16451 16452 16452 16452 16453 0 0 0 0 0 0 0 0 0 0 0 0 0 0 0 0 0 0 0 0 0 0 0 0 0 

6 6 0 0 0 0 0 0 0 0 0 0 0 0 0 0 0 0 0 0 0 0 0 0 0 0 0 0 0 0 0 0 0 0 0 0 0 0 0 0 0 0 0 0 0 0 0 0 0 0 0 0 0 0 0 0 0 0 0 0 0 0 0 0 0 0 0 0 0 0 0 0 0 0
6 6 8245 8246 8246 8246 8246 8247 8250 8251 8251 8251 8251 8252 8250 8251 8251 8251 8251 8252 8250 8251 8251 8251 8251 8252 8250 8251 8251 8251 8251 8252 8259 8260 8260 8260 8260 8261 0 0 0 0 0 0 0 0 0 0 0 0 0 0 0 0 0 0 0 0 0 0 0 0 0 0 0 0 0 0 0 0 0 0 0 0 
6 6 12341 12342 12342 12342 12342 12343 12346 12347 12347 12347 12347 12348 12346 12347 12347 12347 12347 12348 12346 12347 12347 12347 12347 12348 12346 12347 12347 12347 12347 12348 12355 12356 12356 12356 12356 12357 0 0 0 0 0 0 0 0 0 0 0 0 0 0 0 0 0 0 0 0 0 0 0 0 0 0 0 0 0 0 0 0 0 0 0 0 
6 6 16437 16438 16438 16438 16438 16439 16442 16443 16443 16443 16443 16444 16442 16443 16443 16443 16443 16444 16442 16443 16443 16443 16443 16444 16442 16443 16443 16443 16443 16444 16451 16452 16452 16452 16452 16453 0 0 0 0 0 0 0 0 0 0 0 0 0 0 0 0 0 0 0 0 0 0 0 0 0 0 0 0 0 0 0 0 0 0 0 0 

3 3 8284 8285 9308 8287 8288 8289 10332 8290 11356 0 0 0 0 0 0 0 0 0 
3 3 16476 16477 17500 16479 16480 16481 18524 16482 19548 0 0 0 0 0 0 0 0 0 
3 3 12380 12381 13404 12383 12384 12385 14428 12386 15452 0 0 0 0 0 0 0 0 0 

;Bungaloo blocks
2 2 32931 32931 32935 32936 129 129 129 129 
2 2 32929 32930 32933 32934 137 129 137 129 
2 2 32932 32931 32933 32934 129 129 129 129 
3 3 36934 36935 36936 36937 36938 36939 36940 36941 36942 0 0 0 0 0 0 0 0 0 
3 3 36999 37000 37001 37002 37003 37004 37005 37006 36942 0 0 0 0 0 0 0 0 0 
12 2 37015 37016 37017 37018 37019 37016 37017 37018 37019 37016 37017 37018 37020 37021 37022 37023 37024 37021 37022 37023 37024 37021 37022 37023 133 129 129 129 129 129 129 129 129 133 133 0 134 130 130 130 130 130 130 130 130 134 134 0 

;Contraption cave
4 4 32847 32848 32849 32850 32829 32779 32771 32772 32831 32832 32854 32855 32833 32834 32857 32858 133 129 129 129 132 135 131 131 134 130 130 130 0 0 0 0 
4 4 32851 32848 32849 32850 32778 32779 32771 32772 32856 32832 32854 32855 32859 32834 32857 32858 129 129 129 129 131 131 131 131 130 130 130 130 0 0 0 0 

;Cactus woods
2 2 33070 33071 33074 33075 133 129 134 130 
2 2 33071 33083 33075 34098 129 137 130 138 
1 2 33072 33076 129 130 
1 2 33071 33075 129 130 
2 2 33099 33082 33067 33084 136 136 136 136 
2 2 33080 33068 33075 34098 136 136 136 136 
2 1 33067 33068 136 136 
2 1 33078 33079 136 136 