2 2 0 0 0 0 0 0 0 0
2 2 8447 8449 8453 8455 0 0 0 0 
2 2 12543 12545 12549 12551 0 0 0 0 
2 2 16639 16641 16645 16647 0 0 0 0 

3 3 0 0 0 0 0 0 0 0 0 0 0 0 0 0 0 0 0 0 
3 3 8447 8448 8449 8450 8451 8452 8453 8454 8455 0 0 0 0 0 0 0 0 0 
3 3 12543 12544 12545 12546 12547 12548 12549 12550 12551 0 0 0 0 0 0 0 0 0 
3 3 16639 16640 16641 16642 16643 16644 16645 16646 16647 0 0 0 0 0 0 0 0 0 

4 4 0 0 0 0 0 0 0 0 0 0 0 0 0 0 0 0 0 0 0 0 0 0 0 0 0 0 0 0 0 0 0 0 
4 4 8447 8448 8448 8449 8450 8451 8451 8452 8450 8451 8451 8452 8453 8454 8454 8455 0 0 0 0 0 0 0 0 0 0 0 0 0 0 0 0 
4 4 12543 12544 12544 12545 12546 12547 12547 12548 12546 12547 12547 12548 12549 12550 12550 12551 0 0 0 0 0 0 0 0 0 0 0 0 0 0 0 0 
4 4 16639 16640 16640 16641 16642 16643 16643 16644 16642 16643 16643 16644 16645 16646 16646 16647 0 0 0 0 0 0 0 0 0 0 0 0 0 0 0 0 

5 5 0 0 0 0 0 0 0 0 0 0 0 0 0 0 0 0 0 0 0 0 0 0 0 0 0 0 0 0 0 0 0 0 0 0 0 0 0 0 0 0 0 0 0 0 0 0 0 0 0 0 
5 5 8447 8448 8448 8448 8449 8450 8451 8451 8451 8452 8450 8451 8451 8451 8452 8450 8451 8451 8451 8452 8453 8454 8454 8454 8455 0 0 0 0 0 0 0 0 0 0 0 0 0 0 0 0 0 0 0 0 0 0 0 0 0 
5 5 12543 12544 12544 12544 12545 12546 12547 12547 12547 12548 12546 12547 12547 12547 12548 12546 12547 12547 12547 12548 12549 12550 12550 12550 12551 0 0 0 0 0 0 0 0 0 0 0 0 0 0 0 0 0 0 0 0 0 0 0 0 0 
5 5 16639 16640 16640 16640 16641 16642 16643 16643 16643 16644 16642 16643 16643 16643 16644 16642 16643 16643 16643 16644 16645 16646 16646 16646 16647 0 0 0 0 0 0 0 0 0 0 0 0 0 0 0 0 0 0 0 0 0 0 0 0 0 

6 6 0 0 0 0 0 0 0 0 0 0 0 0 0 0 0 0 0 0 0 0 0 0 0 0 0 0 0 0 0 0 0 0 0 0 0 0 0 0 0 0 0 0 0 0 0 0 0 0 0 0 0 0 0 0 0 0 0 0 0 0 0 0 0 0 0 0 0 0 0 0 0 0
6 6 8447 8448 8448 8448 8448 8449 8450 8451 8451 8451 8451 8452 8450 8451 8451 8451 8451 8452 8450 8451 8451 8451 8451 8452 8450 8451 8451 8451 8451 8452 8453 8454 8454 8454 8454 8455 0 0 0 0 0 0 0 0 0 0 0 0 0 0 0 0 0 0 0 0 0 0 0 0 0 0 0 0 0 0 0 0 0 0 0 0 
6 6 12543 12544 12544 12544 12544 12545 12546 12547 12547 12547 12547 12548 12546 12547 12547 12547 12547 12548 12546 12547 12547 12547 12547 12548 12546 12547 12547 12547 12547 12548 12549 12550 12550 12550 12550 12551 0 0 0 0 0 0 0 0 0 0 0 0 0 0 0 0 0 0 0 0 0 0 0 0 0 0 0 0 0 0 0 0 0 0 0 0 
6 6 16639 16640 16640 16640 16640 16641 16642 16643 16643 16643 16643 16644 16642 16643 16643 16643 16643 16644 16642 16643 16643 16643 16643 16644 16642 16643 16643 16643 16643 16644 16645 16646 16646 16646 16646 16647 0 0 0 0 0 0 0 0 0 0 0 0 0 0 0 0 0 0 0 0 0 0 0 0 0 0 0 0 0 0 0 0 0 0 0 0 

3 3 8441 8442 9465 8443 8444 8445 10489 8446 11513 0 0 0 0 0 0 0 0 0 
3 3 12537 12538 13561 12539 12540 12541 14585 12542 15609 0 0 0 0 0 0 0 0 0 
3 3 16633 16634 17657 16635 16636 16637 18681 16638 19705 0 0 0 0 0 0 0 0 0 

;Exits
3 3 37147 37148 37149 37150 37151 37152 37153 37154 37136 0 0 0 0 0 0 0 0 0 
3 3 37128 37129 37130 37131 37132 37133 37134 37135 37136 0 0 0 0 0 0 0 0 0 

;Treetops
2 2 33090 33090 33091 33091 137 129 137 129 
6 5 33059 33060 33061 33062 33063 33064 33065 33066 33067 33068 33069 33070 33071 33072 33073 33074 33075 33076 33078 33079 33080 33081 33082 33083 33084 33085 33086 33087 33088 33089 136 0 0 0 0 0 136 0 0 0 0 0 136 0 0 0 0 0 136 0 0 0 0 0 136 0 0 0 0 0 
7 2 33042 33043 33044 33045 33042 33045 33092 33047 33048 33049 33050 33047 33050 33093 136 129 129 129 129 129 137 136 130 130 130 130 130 138 
7 2 33041 33042 33043 33044 33045 33042 33043 33046 33047 33048 33049 33050 33047 33048 133 129 129 129 129 129 129 134 130 130 130 130 130 135 